Chapter 2 Reading and reshaping data | DataViz protocols
…
# A tibble: 6 × 3
  Treatment Replicate  Size    
  <chr>     <chr>      <chr>   
1 Control   Replicate1 43.69202
2 Control   Replicate2 35.43517
3 Control   Replicate3 27.69333
4 Drug      Replicate1 35.3156 
5 Drug      Replicate2 20.54166
6 Drug      Replicate3 16.13286

There is still one problem that we need to fix. The values in de the column ‘Size’ are characters <chr>, which means these are strings. Let’s convert the strings to actual numbers:

df_tidy %>% mutate(Size = as.numeric(Size))

# A tibble: 300 × 3
   Treatment Replicate   Size
   <chr>     <chr>      <dbl>
 1 Control   Replicate1  43.7
 2 Control   Replicate2  35.4
 3 Control   Replicate3  27.7
 4 Drug      Replicate1  35.3
 5 Drug      Replicate2  20.5
 6 Drug      Replicate3  16.1
 7 Control   Replicate1  41.9
 8 Control   Replicate2  38.2
 9 Control   Replicate3  35.6
10 Drug      Replicate1  34.8
# … with 290 more rows
…
